%YAML 1.1
%TAG !u! tag:unity3d.com,2011:
--- !u!74 &7400000
AnimationClip:
  m_ObjectHideFlags: 0
  m_PrefabParentObject: {fileID: 0}
  m_PrefabInternal: {fileID: 0}
  m_Name: NaokiSpiritAnimation
  serializedVersion: 6
  m_Legacy: 0
  m_Compressed: 0
  m_UseHighQualityCurve: 1
  m_RotationCurves: []
  m_CompressedRotationCurves: []
  m_EulerCurves: []
  m_PositionCurves: []
  m_ScaleCurves: []
  m_FloatCurves: []
  m_PPtrCurves:
  - curve:
    - time: 0
      value: {fileID: 21300000, guid: a7fe84cba871d4c5c98184f12754274a, type: 3}
    - time: 0.04
      value: {fileID: 21300002, guid: a7fe84cba871d4c5c98184f12754274a, type: 3}
    - time: 0.08
      value: {fileID: 21300004, guid: a7fe84cba871d4c5c98184f12754274a, type: 3}
    - time: 0.12
      value: {fileID: 21300006, guid: a7fe84cba871d4c5c98184f12754274a, type: 3}
    - time: 0.16
      value: {fileID: 21300008, guid: a7fe84cba871d4c5c98184f12754274a, type: 3}
    - time: 0.2
      value: {fileID: 21300010, guid: a7fe84cba871d4c5c98184f12754274a, type: 3}
    - time: 0.24
      value: {fileID: 21300012, guid: a7fe84cba871d4c5c98184f12754274a, type: 3}
    - time: 0.28
      value: {fileID: 21300014, guid: a7fe84cba871d4c5c98184f12754274a, type: 3}
    - time: 0.32
      value: {fileID: 21300016, guid: a7fe84cba871d4c5c98184f12754274a, type: 3}
    - time: 0.36
      value: {fileID: 21300018, guid: a7fe84cba871d4c5c98184f12754274a, type: 3}
    - time: 0.4
      value: {fileID: 21300020, guid: a7fe84cba871d4c5c98184f12754274a, type: 3}
    - time: 0.44
      value: {fileID: 21300022, guid: a7fe84cba871d4c5c98184f12754274a, type: 3}
    - time: 0.48
      value: {fileID: 21300024, guid: a7fe84cba871d4c5c98184f12754274a, type: 3}
    - time: 0.52
      value: {fileID: 21300026, guid: a7fe84cba871d4c5c98184f12754274a, type: 3}
    - time: 0.56
      value: {fileID: 21300028, guid: a7fe84cba871d4c5c98184f12754274a, type: 3}
    - time: 0.6
      value: {fileID: 21300030, guid: a7fe84cba871d4c5c98184f12754274a, type: 3}
    - time: 0.64
      value: {fileID: 21300032, guid: a7fe84cba871d4c5c98184f12754274a, type: 3}
    - time: 0.68
      value: {fileID: 21300034, guid: a7fe84cba871d4c5c98184f12754274a, type: 3}
    - time: 0.72
      value: {fileID: 21300036, guid: a7fe84cba871d4c5c98184f12754274a, type: 3}
    - time: 0.76
      value: {fileID: 21300038, guid: a7fe84cba871d4c5c98184f12754274a, type: 3}
    - time: 0.8
      value: {fileID: 21300040, guid: a7fe84cba871d4c5c98184f12754274a, type: 3}
    - time: 0.84
      value: {fileID: 21300042, guid: a7fe84cba871d4c5c98184f12754274a, type: 3}
    - time: 0.88
      value: {fileID: 21300044, guid: a7fe84cba871d4c5c98184f12754274a, type: 3}
    - time: 0.92
      value: {fileID: 21300046, guid: a7fe84cba871d4c5c98184f12754274a, type: 3}
    - time: 0.96
      value: {fileID: 21300048, guid: a7fe84cba871d4c5c98184f12754274a, type: 3}
    - time: 1
      value: {fileID: 21300050, guid: a7fe84cba871d4c5c98184f12754274a, type: 3}
    - time: 1.04
      value: {fileID: 21300052, guid: a7fe84cba871d4c5c98184f12754274a, type: 3}
    - time: 1.08
      value: {fileID: 21300054, guid: a7fe84cba871d4c5c98184f12754274a, type: 3}
    - time: 1.12
      value: {fileID: 21300056, guid: a7fe84cba871d4c5c98184f12754274a, type: 3}
    - time: 1.16
      value: {fileID: 21300058, guid: a7fe84cba871d4c5c98184f12754274a, type: 3}
    - time: 1.2
      value: {fileID: 21300060, guid: a7fe84cba871d4c5c98184f12754274a, type: 3}
    - time: 1.24
      value: {fileID: 21300062, guid: a7fe84cba871d4c5c98184f12754274a, type: 3}
    - time: 1.28
      value: {fileID: 21300064, guid: a7fe84cba871d4c5c98184f12754274a, type: 3}
    - time: 1.32
      value: {fileID: 21300066, guid: a7fe84cba871d4c5c98184f12754274a, type: 3}
    - time: 1.36
      value: {fileID: 21300068, guid: a7fe84cba871d4c5c98184f12754274a, type: 3}
    - time: 1.4
      value: {fileID: 21300070, guid: a7fe84cba871d4c5c98184f12754274a, type: 3}
    - time: 1.44
      value: {fileID: 21300072, guid: a7fe84cba871d4c5c98184f12754274a, type: 3}
    - time: 1.48
      value: {fileID: 21300074, guid: a7fe84cba871d4c5c98184f12754274a, type: 3}
    - time: 1.52
      value: {fileID: 21300076, guid: a7fe84cba871d4c5c98184f12754274a, type: 3}
    - time: 1.56
      value: {fileID: 21300078, guid: a7fe84cba871d4c5c98184f12754274a, type: 3}
    - time: 1.6
      value: {fileID: 21300080, guid: a7fe84cba871d4c5c98184f12754274a, type: 3}
    - time: 1.64
      value: {fileID: 21300082, guid: a7fe84cba871d4c5c98184f12754274a, type: 3}
    - time: 1.68
      value: {fileID: 21300084, guid: a7fe84cba871d4c5c98184f12754274a, type: 3}
    - time: 1.72
      value: {fileID: 21300086, guid: a7fe84cba871d4c5c98184f12754274a, type: 3}
    - time: 1.76
      value: {fileID: 21300088, guid: a7fe84cba871d4c5c98184f12754274a, type: 3}
    - time: 1.8
      value: {fileID: 21300090, guid: a7fe84cba871d4c5c98184f12754274a, type: 3}
    - time: 1.84
      value: {fileID: 21300092, guid: a7fe84cba871d4c5c98184f12754274a, type: 3}
    - time: 1.88
      value: {fileID: 21300094, guid: a7fe84cba871d4c5c98184f12754274a, type: 3}
    - time: 1.92
      value: {fileID: 21300096, guid: a7fe84cba871d4c5c98184f12754274a, type: 3}
    - time: 1.96
      value: {fileID: 21300098, guid: a7fe84cba871d4c5c98184f12754274a, type: 3}
    - time: 2
      value: {fileID: 21300100, guid: a7fe84cba871d4c5c98184f12754274a, type: 3}
    - time: 2.04
      value: {fileID: 21300102, guid: a7fe84cba871d4c5c98184f12754274a, type: 3}
    - time: 2.08
      value: {fileID: 21300104, guid: a7fe84cba871d4c5c98184f12754274a, type: 3}
    - time: 2.12
      value: {fileID: 21300106, guid: a7fe84cba871d4c5c98184f12754274a, type: 3}
    - time: 2.16
      value: {fileID: 21300108, guid: a7fe84cba871d4c5c98184f12754274a, type: 3}
    - time: 2.2
      value: {fileID: 21300110, guid: a7fe84cba871d4c5c98184f12754274a, type: 3}
    - time: 2.24
      value: {fileID: 21300112, guid: a7fe84cba871d4c5c98184f12754274a, type: 3}
    - time: 2.28
      value: {fileID: 21300114, guid: a7fe84cba871d4c5c98184f12754274a, type: 3}
    - time: 2.32
      value: {fileID: 21300116, guid: a7fe84cba871d4c5c98184f12754274a, type: 3}
    - time: 2.36
      value: {fileID: 21300120, guid: a7fe84cba871d4c5c98184f12754274a, type: 3}
    - time: 2.4
      value: {fileID: 21300122, guid: a7fe84cba871d4c5c98184f12754274a, type: 3}
    - time: 2.44
      value: {fileID: 21300124, guid: a7fe84cba871d4c5c98184f12754274a, type: 3}
    - time: 2.48
      value: {fileID: 21300126, guid: a7fe84cba871d4c5c98184f12754274a, type: 3}
    - time: 2.52
      value: {fileID: 21300128, guid: a7fe84cba871d4c5c98184f12754274a, type: 3}
    - time: 2.56
      value: {fileID: 21300130, guid: a7fe84cba871d4c5c98184f12754274a, type: 3}
    - time: 2.6
      value: {fileID: 21300132, guid: a7fe84cba871d4c5c98184f12754274a, type: 3}
    - time: 2.64
      value: {fileID: 21300134, guid: a7fe84cba871d4c5c98184f12754274a, type: 3}
    - time: 2.68
      value: {fileID: 21300136, guid: a7fe84cba871d4c5c98184f12754274a, type: 3}
    - time: 2.72
      value: {fileID: 21300138, guid: a7fe84cba871d4c5c98184f12754274a, type: 3}
    - time: 2.76
      value: {fileID: 21300140, guid: a7fe84cba871d4c5c98184f12754274a, type: 3}
    - time: 2.8
      value: {fileID: 21300142, guid: a7fe84cba871d4c5c98184f12754274a, type: 3}
    - time: 2.84
      value: {fileID: 21300144, guid: a7fe84cba871d4c5c98184f12754274a, type: 3}
    - time: 2.88
      value: {fileID: 21300146, guid: a7fe84cba871d4c5c98184f12754274a, type: 3}
    - time: 2.92
      value: {fileID: 21300148, guid: a7fe84cba871d4c5c98184f12754274a, type: 3}
    - time: 2.96
      value: {fileID: 21300150, guid: a7fe84cba871d4c5c98184f12754274a, type: 3}
    - time: 3
      value: {fileID: 21300152, guid: a7fe84cba871d4c5c98184f12754274a, type: 3}
    - time: 3.04
      value: {fileID: 21300154, guid: a7fe84cba871d4c5c98184f12754274a, type: 3}
    - time: 3.08
      value: {fileID: 21300156, guid: a7fe84cba871d4c5c98184f12754274a, type: 3}
    - time: 3.12
      value: {fileID: 21300158, guid: a7fe84cba871d4c5c98184f12754274a, type: 3}
    - time: 3.16
      value: {fileID: 21300160, guid: a7fe84cba871d4c5c98184f12754274a, type: 3}
    - time: 3.2
      value: {fileID: 21300162, guid: a7fe84cba871d4c5c98184f12754274a, type: 3}
    - time: 3.24
      value: {fileID: 21300164, guid: a7fe84cba871d4c5c98184f12754274a, type: 3}
    - time: 3.28
      value: {fileID: 21300166, guid: a7fe84cba871d4c5c98184f12754274a, type: 3}
    - time: 3.32
      value: {fileID: 21300168, guid: a7fe84cba871d4c5c98184f12754274a, type: 3}
    - time: 3.36
      value: {fileID: 21300170, guid: a7fe84cba871d4c5c98184f12754274a, type: 3}
    - time: 3.4
      value: {fileID: 21300172, guid: a7fe84cba871d4c5c98184f12754274a, type: 3}
    - time: 3.44
      value: {fileID: 21300174, guid: a7fe84cba871d4c5c98184f12754274a, type: 3}
    attribute: m_Sprite
    path: 
    classID: 212
    script: {fileID: 0}
  m_SampleRate: 25
  m_WrapMode: 0
  m_Bounds:
    m_Center: {x: 0, y: 0, z: 0}
    m_Extent: {x: 0, y: 0, z: 0}
  m_ClipBindingConstant:
    genericBindings:
    - serializedVersion: 2
      path: 0
      attribute: 0
      script: {fileID: 0}
      typeID: 212
      customType: 23
      isPPtrCurve: 1
    pptrCurveMapping:
    - {fileID: 21300000, guid: a7fe84cba871d4c5c98184f12754274a, type: 3}
    - {fileID: 21300002, guid: a7fe84cba871d4c5c98184f12754274a, type: 3}
    - {fileID: 21300004, guid: a7fe84cba871d4c5c98184f12754274a, type: 3}
    - {fileID: 21300006, guid: a7fe84cba871d4c5c98184f12754274a, type: 3}
    - {fileID: 21300008, guid: a7fe84cba871d4c5c98184f12754274a, type: 3}
    - {fileID: 21300010, guid: a7fe84cba871d4c5c98184f12754274a, type: 3}
    - {fileID: 21300012, guid: a7fe84cba871d4c5c98184f12754274a, type: 3}
    - {fileID: 21300014, guid: a7fe84cba871d4c5c98184f12754274a, type: 3}
    - {fileID: 21300016, guid: a7fe84cba871d4c5c98184f12754274a, type: 3}
    - {fileID: 21300018, guid: a7fe84cba871d4c5c98184f12754274a, type: 3}
    - {fileID: 21300020, guid: a7fe84cba871d4c5c98184f12754274a, type: 3}
    - {fileID: 21300022, guid: a7fe84cba871d4c5c98184f12754274a, type: 3}
    - {fileID: 21300024, guid: a7fe84cba871d4c5c98184f12754274a, type: 3}
    - {fileID: 21300026, guid: a7fe84cba871d4c5c98184f12754274a, type: 3}
    - {fileID: 21300028, guid: a7fe84cba871d4c5c98184f12754274a, type: 3}
    - {fileID: 21300030, guid: a7fe84cba871d4c5c98184f12754274a, type: 3}
    - {fileID: 21300032, guid: a7fe84cba871d4c5c98184f12754274a, type: 3}
    - {fileID: 21300034, guid: a7fe84cba871d4c5c98184f12754274a, type: 3}
    - {fileID: 21300036, guid: a7fe84cba871d4c5c98184f12754274a, type: 3}
    - {fileID: 21300038, guid: a7fe84cba871d4c5c98184f12754274a, type: 3}
    - {fileID: 21300040, guid: a7fe84cba871d4c5c98184f12754274a, type: 3}
    - {fileID: 21300042, guid: a7fe84cba871d4c5c98184f12754274a, type: 3}
    - {fileID: 21300044, guid: a7fe84cba871d4c5c98184f12754274a, type: 3}
    - {fileID: 21300046, guid: a7fe84cba871d4c5c98184f12754274a, type: 3}
    - {fileID: 21300048, guid: a7fe84cba871d4c5c98184f12754274a, type: 3}
    - {fileID: 21300050, guid: a7fe84cba871d4c5c98184f12754274a, type: 3}
    - {fileID: 21300052, guid: a7fe84cba871d4c5c98184f12754274a, type: 3}
    - {fileID: 21300054, guid: a7fe84cba871d4c5c98184f12754274a, type: 3}
    - {fileID: 21300056, guid: a7fe84cba871d4c5c98184f12754274a, type: 3}
    - {fileID: 21300058, guid: a7fe84cba871d4c5c98184f12754274a, type: 3}
    - {fileID: 21300060, guid: a7fe84cba871d4c5c98184f12754274a, type: 3}
    - {fileID: 21300062, guid: a7fe84cba871d4c5c98184f12754274a, type: 3}
    - {fileID: 21300064, guid: a7fe84cba871d4c5c98184f12754274a, type: 3}
    - {fileID: 21300066, guid: a7fe84cba871d4c5c98184f12754274a, type: 3}
    - {fileID: 21300068, guid: a7fe84cba871d4c5c98184f12754274a, type: 3}
    - {fileID: 21300070, guid: a7fe84cba871d4c5c98184f12754274a, type: 3}
    - {fileID: 21300072, guid: a7fe84cba871d4c5c98184f12754274a, type: 3}
    - {fileID: 21300074, guid: a7fe84cba871d4c5c98184f12754274a, type: 3}
    - {fileID: 21300076, guid: a7fe84cba871d4c5c98184f12754274a, type: 3}
    - {fileID: 21300078, guid: a7fe84cba871d4c5c98184f12754274a, type: 3}
    - {fileID: 21300080, guid: a7fe84cba871d4c5c98184f12754274a, type: 3}
    - {fileID: 21300082, guid: a7fe84cba871d4c5c98184f12754274a, type: 3}
    - {fileID: 21300084, guid: a7fe84cba871d4c5c98184f12754274a, type: 3}
    - {fileID: 21300086, guid: a7fe84cba871d4c5c98184f12754274a, type: 3}
    - {fileID: 21300088, guid: a7fe84cba871d4c5c98184f12754274a, type: 3}
    - {fileID: 21300090, guid: a7fe84cba871d4c5c98184f12754274a, type: 3}
    - {fileID: 21300092, guid: a7fe84cba871d4c5c98184f12754274a, type: 3}
    - {fileID: 21300094, guid: a7fe84cba871d4c5c98184f12754274a, type: 3}
    - {fileID: 21300096, guid: a7fe84cba871d4c5c98184f12754274a, type: 3}
    - {fileID: 21300098, guid: a7fe84cba871d4c5c98184f12754274a, type: 3}
    - {fileID: 21300100, guid: a7fe84cba871d4c5c98184f12754274a, type: 3}
    - {fileID: 21300102, guid: a7fe84cba871d4c5c98184f12754274a, type: 3}
    - {fileID: 21300104, guid: a7fe84cba871d4c5c98184f12754274a, type: 3}
    - {fileID: 21300106, guid: a7fe84cba871d4c5c98184f12754274a, type: 3}
    - {fileID: 21300108, guid: a7fe84cba871d4c5c98184f12754274a, type: 3}
    - {fileID: 21300110, guid: a7fe84cba871d4c5c98184f12754274a, type: 3}
    - {fileID: 21300112, guid: a7fe84cba871d4c5c98184f12754274a, type: 3}
    - {fileID: 21300114, guid: a7fe84cba871d4c5c98184f12754274a, type: 3}
    - {fileID: 21300116, guid: a7fe84cba871d4c5c98184f12754274a, type: 3}
    - {fileID: 21300120, guid: a7fe84cba871d4c5c98184f12754274a, type: 3}
    - {fileID: 21300122, guid: a7fe84cba871d4c5c98184f12754274a, type: 3}
    - {fileID: 21300124, guid: a7fe84cba871d4c5c98184f12754274a, type: 3}
    - {fileID: 21300126, guid: a7fe84cba871d4c5c98184f12754274a, type: 3}
    - {fileID: 21300128, guid: a7fe84cba871d4c5c98184f12754274a, type: 3}
    - {fileID: 21300130, guid: a7fe84cba871d4c5c98184f12754274a, type: 3}
    - {fileID: 21300132, guid: a7fe84cba871d4c5c98184f12754274a, type: 3}
    - {fileID: 21300134, guid: a7fe84cba871d4c5c98184f12754274a, type: 3}
    - {fileID: 21300136, guid: a7fe84cba871d4c5c98184f12754274a, type: 3}
    - {fileID: 21300138, guid: a7fe84cba871d4c5c98184f12754274a, type: 3}
    - {fileID: 21300140, guid: a7fe84cba871d4c5c98184f12754274a, type: 3}
    - {fileID: 21300142, guid: a7fe84cba871d4c5c98184f12754274a, type: 3}
    - {fileID: 21300144, guid: a7fe84cba871d4c5c98184f12754274a, type: 3}
    - {fileID: 21300146, guid: a7fe84cba871d4c5c98184f12754274a, type: 3}
    - {fileID: 21300148, guid: a7fe84cba871d4c5c98184f12754274a, type: 3}
    - {fileID: 21300150, guid: a7fe84cba871d4c5c98184f12754274a, type: 3}
    - {fileID: 21300152, guid: a7fe84cba871d4c5c98184f12754274a, type: 3}
    - {fileID: 21300154, guid: a7fe84cba871d4c5c98184f12754274a, type: 3}
    - {fileID: 21300156, guid: a7fe84cba871d4c5c98184f12754274a, type: 3}
    - {fileID: 21300158, guid: a7fe84cba871d4c5c98184f12754274a, type: 3}
    - {fileID: 21300160, guid: a7fe84cba871d4c5c98184f12754274a, type: 3}
    - {fileID: 21300162, guid: a7fe84cba871d4c5c98184f12754274a, type: 3}
    - {fileID: 21300164, guid: a7fe84cba871d4c5c98184f12754274a, type: 3}
    - {fileID: 21300166, guid: a7fe84cba871d4c5c98184f12754274a, type: 3}
    - {fileID: 21300168, guid: a7fe84cba871d4c5c98184f12754274a, type: 3}
    - {fileID: 21300170, guid: a7fe84cba871d4c5c98184f12754274a, type: 3}
    - {fileID: 21300172, guid: a7fe84cba871d4c5c98184f12754274a, type: 3}
    - {fileID: 21300174, guid: a7fe84cba871d4c5c98184f12754274a, type: 3}
  m_AnimationClipSettings:
    serializedVersion: 2
    m_AdditiveReferencePoseClip: {fileID: 0}
    m_AdditiveReferencePoseTime: 0
    m_StartTime: 0
    m_StopTime: 3.48
    m_OrientationOffsetY: 0
    m_Level: 0
    m_CycleOffset: 0
    m_HasAdditiveReferencePose: 0
    m_LoopTime: 1
    m_LoopBlend: 0
    m_LoopBlendOrientation: 0
    m_LoopBlendPositionY: 0
    m_LoopBlendPositionXZ: 0
    m_KeepOriginalOrientation: 0
    m_KeepOriginalPositionY: 1
    m_KeepOriginalPositionXZ: 0
    m_HeightFromFeet: 0
    m_Mirror: 0
  m_EditorCurves: []
  m_EulerEditorCurves: []
  m_HasGenericRootTransform: 0
  m_HasMotionFloatCurves: 0
  m_GenerateMotionCurves: 0
  m_Events: []
