%YAML 1.1
%TAG !u! tag:unity3d.com,2011:
--- !u!74 &7400000
AnimationClip:
  m_ObjectHideFlags: 0
  m_PrefabParentObject: {fileID: 0}
  m_PrefabInternal: {fileID: 0}
  m_Name: hit_ground
  serializedVersion: 6
  m_Legacy: 0
  m_Compressed: 0
  m_UseHighQualityCurve: 1
  m_RotationCurves: []
  m_CompressedRotationCurves: []
  m_EulerCurves: []
  m_PositionCurves: []
  m_ScaleCurves: []
  m_FloatCurves:
  - curve:
      serializedVersion: 2
      m_Curve:
      - serializedVersion: 2
        time: 0
        value: 2.2011313
        inSlope: 0
        outSlope: 0
        tangentMode: 136
      - serializedVersion: 2
        time: 0.6333333
        value: 10
        inSlope: 0
        outSlope: 0
        tangentMode: 136
      - serializedVersion: 2
        time: 1.2666667
        value: 2.2011313
        inSlope: 0
        outSlope: 0
        tangentMode: 136
      m_PreInfinity: 2
      m_PostInfinity: 2
      m_RotationOrder: 4
    attribute: m_Size.x
    path: 
    classID: 70
    script: {fileID: 0}
  - curve:
      serializedVersion: 2
      m_Curve:
      - serializedVersion: 2
        time: 0
        value: 20
        inSlope: 0
        outSlope: 0
        tangentMode: 136
      - serializedVersion: 2
        time: 1.2666667
        value: 20
        inSlope: 0
        outSlope: 0
        tangentMode: 136
      m_PreInfinity: 2
      m_PostInfinity: 2
      m_RotationOrder: 4
    attribute: m_Size.y
    path: 
    classID: 70
    script: {fileID: 0}
  - curve:
      serializedVersion: 2
      m_Curve:
      - serializedVersion: 2
        time: 0
        value: -1.0632935
        inSlope: 0
        outSlope: 0
        tangentMode: 136
      - serializedVersion: 2
        time: 0.6333333
        value: -3.69
        inSlope: 0
        outSlope: 0
        tangentMode: 136
      - serializedVersion: 2
        time: 1.2666667
        value: -1.0632935
        inSlope: 0
        outSlope: 0
        tangentMode: 136
      m_PreInfinity: 2
      m_PostInfinity: 2
      m_RotationOrder: 4
    attribute: m_Offset.x
    path: 
    classID: 70
    script: {fileID: 0}
  - curve:
      serializedVersion: 2
      m_Curve:
      - serializedVersion: 2
        time: 0
        value: -7.0896797
        inSlope: 0
        outSlope: 0
        tangentMode: 136
      - serializedVersion: 2
        time: 1.2666667
        value: -7.0896797
        inSlope: 0
        outSlope: 0
        tangentMode: 136
      m_PreInfinity: 2
      m_PostInfinity: 2
      m_RotationOrder: 4
    attribute: m_Offset.y
    path: 
    classID: 70
    script: {fileID: 0}
  m_PPtrCurves:
  - curve:
    - time: 0
      value: {fileID: 21300000, guid: c2dc45cf9f0e4411fa4e8ca2ea712b29, type: 3}
    - time: 0.033333335
      value: {fileID: 21300000, guid: a0769bd99fc034884ab4ec4eca0566c0, type: 3}
    - time: 0.06666667
      value: {fileID: 21300000, guid: 1df204198a71d4ebfa9e9d03f62c2a56, type: 3}
    - time: 0.1
      value: {fileID: 21300000, guid: eb79315e715bc472d9c532ac2f0ea801, type: 3}
    - time: 0.13333334
      value: {fileID: 21300000, guid: 6a24f883b85844f76982b8d4d046a253, type: 3}
    - time: 0.16666667
      value: {fileID: 21300000, guid: 20d52bcb9ec8244808643c503d67e8d4, type: 3}
    - time: 0.2
      value: {fileID: 21300000, guid: 09800f9694b5d4dcd91b1ab4be0bd149, type: 3}
    - time: 0.23333333
      value: {fileID: 21300000, guid: c8035e9ba29b9434da023c40c1651aa3, type: 3}
    - time: 0.26666668
      value: {fileID: 21300000, guid: 4f7cd87e85b3f46db98f820583cdadb8, type: 3}
    - time: 0.3
      value: {fileID: 21300000, guid: 9fb6ca16da95949c1bbc0444417fc8f4, type: 3}
    - time: 0.33333334
      value: {fileID: 21300000, guid: fb1826d1951b94eb6a391d6510ca68a2, type: 3}
    - time: 0.36666667
      value: {fileID: 21300000, guid: 8a52217f3c75247bc9b2ad4da9f55497, type: 3}
    - time: 0.4
      value: {fileID: 21300000, guid: 8af2850d2a3da4ea6adda6ebd2527656, type: 3}
    - time: 0.43333334
      value: {fileID: 21300000, guid: deb62e31f42dc44faa63f89fcfbff842, type: 3}
    - time: 0.46666667
      value: {fileID: 21300000, guid: 7e425a13b7058493f98a804d04c636a1, type: 3}
    - time: 0.5
      value: {fileID: 21300000, guid: 58a568aecc92043c2be9af02a32cd568, type: 3}
    - time: 0.53333336
      value: {fileID: 21300000, guid: 3b11b3ff2e20e416ea747d5c35b945bb, type: 3}
    - time: 0.56666666
      value: {fileID: 21300000, guid: 4cdcfa77351784f14a77ecfcc468b0b8, type: 3}
    - time: 0.6
      value: {fileID: 21300000, guid: cac915ac3f4f14574bab9c60066ba29b, type: 3}
    - time: 0.6333333
      value: {fileID: 21300000, guid: 8b496f4a4d2994129afa46b402932d49, type: 3}
    - time: 0.6666667
      value: {fileID: 21300000, guid: cbfa0a6d3e2ae4b9d8f5d28a82b1dd21, type: 3}
    - time: 0.7
      value: {fileID: 21300000, guid: d32549553789c4e79be20c9183f08890, type: 3}
    - time: 0.73333335
      value: {fileID: 21300000, guid: 2834030b80eba45e3891289d5979a514, type: 3}
    - time: 0.76666665
      value: {fileID: 21300000, guid: fc7dad8f3f85d45de842cb9bcaf86b0a, type: 3}
    - time: 0.8
      value: {fileID: 21300000, guid: 0854da51535204285bad4451501be4f0, type: 3}
    - time: 0.8333333
      value: {fileID: 21300000, guid: de03145cffb08424f9a1f6bd3e4b7fc8, type: 3}
    - time: 0.8666667
      value: {fileID: 21300000, guid: f5fe3828964cf4d08a7b191ba9246d58, type: 3}
    - time: 0.9
      value: {fileID: 21300000, guid: e05aa90349dd6427aa2d0d930d376e69, type: 3}
    - time: 0.93333334
      value: {fileID: 21300000, guid: ebc0f13e2420342aba702c24faec0ae9, type: 3}
    - time: 0.96666664
      value: {fileID: 21300000, guid: 58d03eca00b6544628d7be81e72556bb, type: 3}
    - time: 1
      value: {fileID: 21300000, guid: fe57068602f4b4a188409e501fc78f53, type: 3}
    - time: 1.0333333
      value: {fileID: 21300000, guid: 539da6449d7c043cd8490cc1b2e30c23, type: 3}
    - time: 1.0666667
      value: {fileID: 21300000, guid: f04db3e2525ba46a497f63a5f26ee50e, type: 3}
    - time: 1.1
      value: {fileID: 21300000, guid: 165b4bc34b0d747be93529d5376562cf, type: 3}
    - time: 1.1333333
      value: {fileID: 21300000, guid: 165b4bc34b0d747be93529d5376562cf, type: 3}
    - time: 1.1666666
      value: {fileID: 21300000, guid: 222eb637e99ad45de96b003d6f6d31bf, type: 3}
    - time: 1.2
      value: {fileID: 21300000, guid: 36eda0005b67140479225678e82e0c45, type: 3}
    - time: 1.2333333
      value: {fileID: 21300000, guid: 5715c9903d12049f9ab07ebbc303cb89, type: 3}
    attribute: m_Sprite
    path: 
    classID: 212
    script: {fileID: 0}
  m_SampleRate: 30
  m_WrapMode: 0
  m_Bounds:
    m_Center: {x: 0, y: 0, z: 0}
    m_Extent: {x: 0, y: 0, z: 0}
  m_ClipBindingConstant:
    genericBindings:
    - serializedVersion: 2
      path: 0
      attribute: 4197328169
      script: {fileID: 0}
      typeID: 70
      customType: 0
      isPPtrCurve: 0
    - serializedVersion: 2
      path: 0
      attribute: 413499720
      script: {fileID: 0}
      typeID: 70
      customType: 0
      isPPtrCurve: 0
    - serializedVersion: 2
      path: 0
      attribute: 0
      script: {fileID: 0}
      typeID: 212
      customType: 23
      isPPtrCurve: 1
    - serializedVersion: 2
      path: 0
      attribute: 2368279999
      script: {fileID: 0}
      typeID: 70
      customType: 0
      isPPtrCurve: 0
    - serializedVersion: 2
      path: 0
      attribute: 1872933342
      script: {fileID: 0}
      typeID: 70
      customType: 0
      isPPtrCurve: 0
    pptrCurveMapping:
    - {fileID: 21300000, guid: c2dc45cf9f0e4411fa4e8ca2ea712b29, type: 3}
    - {fileID: 21300000, guid: a0769bd99fc034884ab4ec4eca0566c0, type: 3}
    - {fileID: 21300000, guid: 1df204198a71d4ebfa9e9d03f62c2a56, type: 3}
    - {fileID: 21300000, guid: eb79315e715bc472d9c532ac2f0ea801, type: 3}
    - {fileID: 21300000, guid: 6a24f883b85844f76982b8d4d046a253, type: 3}
    - {fileID: 21300000, guid: 20d52bcb9ec8244808643c503d67e8d4, type: 3}
    - {fileID: 21300000, guid: 09800f9694b5d4dcd91b1ab4be0bd149, type: 3}
    - {fileID: 21300000, guid: c8035e9ba29b9434da023c40c1651aa3, type: 3}
    - {fileID: 21300000, guid: 4f7cd87e85b3f46db98f820583cdadb8, type: 3}
    - {fileID: 21300000, guid: 9fb6ca16da95949c1bbc0444417fc8f4, type: 3}
    - {fileID: 21300000, guid: fb1826d1951b94eb6a391d6510ca68a2, type: 3}
    - {fileID: 21300000, guid: 8a52217f3c75247bc9b2ad4da9f55497, type: 3}
    - {fileID: 21300000, guid: 8af2850d2a3da4ea6adda6ebd2527656, type: 3}
    - {fileID: 21300000, guid: deb62e31f42dc44faa63f89fcfbff842, type: 3}
    - {fileID: 21300000, guid: 7e425a13b7058493f98a804d04c636a1, type: 3}
    - {fileID: 21300000, guid: 58a568aecc92043c2be9af02a32cd568, type: 3}
    - {fileID: 21300000, guid: 3b11b3ff2e20e416ea747d5c35b945bb, type: 3}
    - {fileID: 21300000, guid: 4cdcfa77351784f14a77ecfcc468b0b8, type: 3}
    - {fileID: 21300000, guid: cac915ac3f4f14574bab9c60066ba29b, type: 3}
    - {fileID: 21300000, guid: 8b496f4a4d2994129afa46b402932d49, type: 3}
    - {fileID: 21300000, guid: cbfa0a6d3e2ae4b9d8f5d28a82b1dd21, type: 3}
    - {fileID: 21300000, guid: d32549553789c4e79be20c9183f08890, type: 3}
    - {fileID: 21300000, guid: 2834030b80eba45e3891289d5979a514, type: 3}
    - {fileID: 21300000, guid: fc7dad8f3f85d45de842cb9bcaf86b0a, type: 3}
    - {fileID: 21300000, guid: 0854da51535204285bad4451501be4f0, type: 3}
    - {fileID: 21300000, guid: de03145cffb08424f9a1f6bd3e4b7fc8, type: 3}
    - {fileID: 21300000, guid: f5fe3828964cf4d08a7b191ba9246d58, type: 3}
    - {fileID: 21300000, guid: e05aa90349dd6427aa2d0d930d376e69, type: 3}
    - {fileID: 21300000, guid: ebc0f13e2420342aba702c24faec0ae9, type: 3}
    - {fileID: 21300000, guid: 58d03eca00b6544628d7be81e72556bb, type: 3}
    - {fileID: 21300000, guid: fe57068602f4b4a188409e501fc78f53, type: 3}
    - {fileID: 21300000, guid: 539da6449d7c043cd8490cc1b2e30c23, type: 3}
    - {fileID: 21300000, guid: f04db3e2525ba46a497f63a5f26ee50e, type: 3}
    - {fileID: 21300000, guid: 165b4bc34b0d747be93529d5376562cf, type: 3}
    - {fileID: 21300000, guid: 165b4bc34b0d747be93529d5376562cf, type: 3}
    - {fileID: 21300000, guid: 222eb637e99ad45de96b003d6f6d31bf, type: 3}
    - {fileID: 21300000, guid: 36eda0005b67140479225678e82e0c45, type: 3}
    - {fileID: 21300000, guid: 5715c9903d12049f9ab07ebbc303cb89, type: 3}
  m_AnimationClipSettings:
    serializedVersion: 2
    m_AdditiveReferencePoseClip: {fileID: 0}
    m_AdditiveReferencePoseTime: 0
    m_StartTime: 0
    m_StopTime: 1.2666667
    m_OrientationOffsetY: 0
    m_Level: 0
    m_CycleOffset: 0
    m_HasAdditiveReferencePose: 0
    m_LoopTime: 0
    m_LoopBlend: 0
    m_LoopBlendOrientation: 0
    m_LoopBlendPositionY: 0
    m_LoopBlendPositionXZ: 0
    m_KeepOriginalOrientation: 0
    m_KeepOriginalPositionY: 1
    m_KeepOriginalPositionXZ: 0
    m_HeightFromFeet: 0
    m_Mirror: 0
  m_EditorCurves:
  - curve:
      serializedVersion: 2
      m_Curve:
      - serializedVersion: 2
        time: 0
        value: 2.2011313
        inSlope: 0
        outSlope: 0
        tangentMode: 136
      - serializedVersion: 2
        time: 0.6333333
        value: 10
        inSlope: 0
        outSlope: 0
        tangentMode: 136
      - serializedVersion: 2
        time: 1.2666667
        value: 2.2011313
        inSlope: 0
        outSlope: 0
        tangentMode: 136
      m_PreInfinity: 2
      m_PostInfinity: 2
      m_RotationOrder: 4
    attribute: m_Size.x
    path: 
    classID: 70
    script: {fileID: 0}
  - curve:
      serializedVersion: 2
      m_Curve:
      - serializedVersion: 2
        time: 0
        value: 20
        inSlope: 0
        outSlope: 0
        tangentMode: 136
      - serializedVersion: 2
        time: 1.2666667
        value: 20
        inSlope: 0
        outSlope: 0
        tangentMode: 136
      m_PreInfinity: 2
      m_PostInfinity: 2
      m_RotationOrder: 4
    attribute: m_Size.y
    path: 
    classID: 70
    script: {fileID: 0}
  - curve:
      serializedVersion: 2
      m_Curve:
      - serializedVersion: 2
        time: 0
        value: -1.0632935
        inSlope: 0
        outSlope: 0
        tangentMode: 136
      - serializedVersion: 2
        time: 0.6333333
        value: -3.69
        inSlope: 0
        outSlope: 0
        tangentMode: 136
      - serializedVersion: 2
        time: 1.2666667
        value: -1.0632935
        inSlope: 0
        outSlope: 0
        tangentMode: 136
      m_PreInfinity: 2
      m_PostInfinity: 2
      m_RotationOrder: 4
    attribute: m_Offset.x
    path: 
    classID: 70
    script: {fileID: 0}
  - curve:
      serializedVersion: 2
      m_Curve:
      - serializedVersion: 2
        time: 0
        value: -7.0896797
        inSlope: 0
        outSlope: 0
        tangentMode: 136
      - serializedVersion: 2
        time: 1.2666667
        value: -7.0896797
        inSlope: 0
        outSlope: 0
        tangentMode: 136
      m_PreInfinity: 2
      m_PostInfinity: 2
      m_RotationOrder: 4
    attribute: m_Offset.y
    path: 
    classID: 70
    script: {fileID: 0}
  m_EulerEditorCurves: []
  m_HasGenericRootTransform: 0
  m_HasMotionFloatCurves: 0
  m_GenerateMotionCurves: 0
  m_Events:
  - time: 1.2333333
    functionName: FinishAttack
    data: 
    objectReferenceParameter: {fileID: 0}
    floatParameter: 0
    intParameter: 0
    messageOptions: 0
