%YAML 1.1
%TAG !u! tag:unity3d.com,2011:
--- !u!78 &1
TagManager:
  serializedVersion: 2
  tags:
  - Damager
  - pausablescene
  - deleter
  - enemy
  - shuriken
  - instant-death
  - slash
  layers:
  - Default
  - TransparentFX
  - Ignore Raycast
  - 
  - Water
  - UI
  - 
  - 
  - Floor
  - Text
  - ChainStuff
  - Confiner
  - 
  - 
  - 
  - 
  - 
  - 
  - 
  - 
  - 
  - 
  - 
  - 
  - 
  - 
  - 
  - 
  - Depth2
  - 
  - 
  - 
  m_SortingLayers:
  - name: Text
    uniqueID: 3790725997
    locked: 0
  - name: Default
    uniqueID: 0
    locked: 0
