%YAML 1.1
%TAG !u! tag:unity3d.com,2011:
--- !u!74 &7400000
AnimationClip:
  m_ObjectHideFlags: 0
  m_PrefabParentObject: {fileID: 0}
  m_PrefabInternal: {fileID: 0}
  m_Name: victory
  serializedVersion: 6
  m_Legacy: 0
  m_Compressed: 0
  m_UseHighQualityCurve: 1
  m_RotationCurves: []
  m_CompressedRotationCurves: []
  m_EulerCurves: []
  m_PositionCurves: []
  m_ScaleCurves: []
  m_FloatCurves: []
  m_PPtrCurves:
  - curve:
    - time: 0
      value: {fileID: 21300000, guid: d55dbba101bc14fe99730c3e3f4c3304, type: 3}
    - time: 0.033333335
      value: {fileID: 21300000, guid: cef0d89ad8d0f4c4090e6b4e6e0f714e, type: 3}
    - time: 0.06666667
      value: {fileID: 21300000, guid: 1eb613da6e9954bc498374ce6db72ce0, type: 3}
    - time: 0.1
      value: {fileID: 21300000, guid: 8bd7521163d9c45ae85f00265a1f5719, type: 3}
    - time: 0.13333334
      value: {fileID: 21300000, guid: 95b6b14cc81f04023b5276c7f5f4828b, type: 3}
    - time: 0.16666667
      value: {fileID: 21300000, guid: 62d6e6da3748c4d2591295389c7abe51, type: 3}
    - time: 0.2
      value: {fileID: 21300000, guid: 8b8a2793ab9144fa4b84e62771b6e577, type: 3}
    - time: 0.23333333
      value: {fileID: 21300000, guid: 66796610fe8934bb182e69496619ec09, type: 3}
    - time: 0.26666668
      value: {fileID: 21300000, guid: 48ab28ccdb5dc4213a921376127637bf, type: 3}
    - time: 0.3
      value: {fileID: 21300000, guid: 1e94da71ecc5241a69ed194851ac5d7d, type: 3}
    - time: 0.33333334
      value: {fileID: 21300000, guid: a21c26e74f49749b7a0e3a3f4246089b, type: 3}
    - time: 0.36666667
      value: {fileID: 21300000, guid: 0c7faa34fab4b4fac8d261f8134295e7, type: 3}
    - time: 0.4
      value: {fileID: 21300000, guid: 2e59c1b7f1d8145a29c58f7f513add35, type: 3}
    - time: 0.43333334
      value: {fileID: 21300000, guid: 05280039b3c0a49e995eb831723be457, type: 3}
    - time: 0.46666667
      value: {fileID: 21300000, guid: 40dccc04201d84b599e8218fb33d990b, type: 3}
    - time: 0.5
      value: {fileID: 21300000, guid: 3a646b5105d0c4d3cba788aeaaefcb77, type: 3}
    - time: 0.53333336
      value: {fileID: 21300000, guid: b74024c0b07eb458da6cc7e326a06f21, type: 3}
    - time: 0.56666666
      value: {fileID: 21300000, guid: 7c9a7eccc6b9547edbb4911432d07d76, type: 3}
    - time: 0.6
      value: {fileID: 21300000, guid: ed7e4508f6dda4ee3a4468c6b5d0ca16, type: 3}
    - time: 0.6333333
      value: {fileID: 21300000, guid: a26363365da52453592e819c3e2b51de, type: 3}
    - time: 0.6666667
      value: {fileID: 21300000, guid: d586ac9b6e4d54e4ca797b75b318276b, type: 3}
    - time: 0.7
      value: {fileID: 21300000, guid: edf59f5f5bc8d4b7c9a4d6102a4c7ed2, type: 3}
    - time: 0.73333335
      value: {fileID: 21300000, guid: e066d74e7cb6245acad404de39273683, type: 3}
    - time: 0.76666665
      value: {fileID: 21300000, guid: 3c46c9af9fae8499ea6df985901a0081, type: 3}
    - time: 0.8
      value: {fileID: 21300000, guid: 8ca64c48fe6234034ab24166e03604f2, type: 3}
    - time: 0.8333333
      value: {fileID: 21300000, guid: f8024945c44354748b5411795e445001, type: 3}
    - time: 0.8666667
      value: {fileID: 21300000, guid: 8c431c0be39d0490da6887c0a7e10b7e, type: 3}
    - time: 0.9
      value: {fileID: 21300000, guid: ea2d0249059f141afbf6951f586d3d2c, type: 3}
    - time: 0.93333334
      value: {fileID: 21300000, guid: 05b816f3d6a51409c91a48116b8c9b8c, type: 3}
    - time: 0.96666664
      value: {fileID: 21300000, guid: 2c2550c9689d149f59137067fe6bd3af, type: 3}
    - time: 1
      value: {fileID: 21300000, guid: d626e55fbdb504a34bfee37a4ff9ce70, type: 3}
    - time: 1.0333333
      value: {fileID: 21300000, guid: b33bc44c8d1e9486597fea717149e017, type: 3}
    - time: 1.0666667
      value: {fileID: 21300000, guid: 8c2971c36e3c849b0b9b5a5cb5c42fe7, type: 3}
    - time: 1.1
      value: {fileID: 21300000, guid: 8d9d15fa7acfb4c8ea329e294b12edad, type: 3}
    - time: 1.1333333
      value: {fileID: 21300000, guid: 73d495fb44e3e43b1a4731429667f048, type: 3}
    - time: 1.1666666
      value: {fileID: 21300000, guid: 5972c138bf1b84644ae0c5f32aafe4a1, type: 3}
    - time: 1.2
      value: {fileID: 21300000, guid: e6bddd65733c34f219d772b1811ba73f, type: 3}
    - time: 1.2333333
      value: {fileID: 21300000, guid: 109efee3a3abb482ba3fa74a11223114, type: 3}
    - time: 1.2666667
      value: {fileID: 21300000, guid: 8387f611cb65d449fa303a8b86ab18a1, type: 3}
    - time: 1.3
      value: {fileID: 21300000, guid: 150bc07abae994f2baa3cac50368f2f0, type: 3}
    - time: 1.3333334
      value: {fileID: 21300000, guid: 7473d82ad256d4f1ab8e31e76f47f001, type: 3}
    - time: 1.3666667
      value: {fileID: 21300000, guid: 95418f99d12f64508924e7084d7a16bc, type: 3}
    - time: 1.4
      value: {fileID: 21300000, guid: 6827f4f4b333049449fcc0a3a1eb5da6, type: 3}
    - time: 1.4333333
      value: {fileID: 21300000, guid: f24c2b0659e2144dca47f58f789176e2, type: 3}
    - time: 1.4666667
      value: {fileID: 21300000, guid: 7294a4704df48428e9ffafe9e1469b8b, type: 3}
    - time: 1.5
      value: {fileID: 21300000, guid: aecf455f44e874851aa080fa667a3d21, type: 3}
    - time: 1.5333333
      value: {fileID: 21300000, guid: 3446fb0b6d7a64236a78ee8d6ed29f19, type: 3}
    - time: 1.5666667
      value: {fileID: 21300000, guid: b8515da05de5547ce8be53272e9d42fe, type: 3}
    - time: 1.6
      value: {fileID: 21300000, guid: dbc95578bbe2d4c6ab904d6b3ee6494c, type: 3}
    attribute: m_Sprite
    path: 
    classID: 212
    script: {fileID: 0}
  m_SampleRate: 30
  m_WrapMode: 0
  m_Bounds:
    m_Center: {x: 0, y: 0, z: 0}
    m_Extent: {x: 0, y: 0, z: 0}
  m_ClipBindingConstant:
    genericBindings:
    - serializedVersion: 2
      path: 0
      attribute: 0
      script: {fileID: 0}
      typeID: 212
      customType: 23
      isPPtrCurve: 1
    pptrCurveMapping:
    - {fileID: 21300000, guid: d55dbba101bc14fe99730c3e3f4c3304, type: 3}
    - {fileID: 21300000, guid: cef0d89ad8d0f4c4090e6b4e6e0f714e, type: 3}
    - {fileID: 21300000, guid: 1eb613da6e9954bc498374ce6db72ce0, type: 3}
    - {fileID: 21300000, guid: 8bd7521163d9c45ae85f00265a1f5719, type: 3}
    - {fileID: 21300000, guid: 95b6b14cc81f04023b5276c7f5f4828b, type: 3}
    - {fileID: 21300000, guid: 62d6e6da3748c4d2591295389c7abe51, type: 3}
    - {fileID: 21300000, guid: 8b8a2793ab9144fa4b84e62771b6e577, type: 3}
    - {fileID: 21300000, guid: 66796610fe8934bb182e69496619ec09, type: 3}
    - {fileID: 21300000, guid: 48ab28ccdb5dc4213a921376127637bf, type: 3}
    - {fileID: 21300000, guid: 1e94da71ecc5241a69ed194851ac5d7d, type: 3}
    - {fileID: 21300000, guid: a21c26e74f49749b7a0e3a3f4246089b, type: 3}
    - {fileID: 21300000, guid: 0c7faa34fab4b4fac8d261f8134295e7, type: 3}
    - {fileID: 21300000, guid: 2e59c1b7f1d8145a29c58f7f513add35, type: 3}
    - {fileID: 21300000, guid: 05280039b3c0a49e995eb831723be457, type: 3}
    - {fileID: 21300000, guid: 40dccc04201d84b599e8218fb33d990b, type: 3}
    - {fileID: 21300000, guid: 3a646b5105d0c4d3cba788aeaaefcb77, type: 3}
    - {fileID: 21300000, guid: b74024c0b07eb458da6cc7e326a06f21, type: 3}
    - {fileID: 21300000, guid: 7c9a7eccc6b9547edbb4911432d07d76, type: 3}
    - {fileID: 21300000, guid: ed7e4508f6dda4ee3a4468c6b5d0ca16, type: 3}
    - {fileID: 21300000, guid: a26363365da52453592e819c3e2b51de, type: 3}
    - {fileID: 21300000, guid: d586ac9b6e4d54e4ca797b75b318276b, type: 3}
    - {fileID: 21300000, guid: edf59f5f5bc8d4b7c9a4d6102a4c7ed2, type: 3}
    - {fileID: 21300000, guid: e066d74e7cb6245acad404de39273683, type: 3}
    - {fileID: 21300000, guid: 3c46c9af9fae8499ea6df985901a0081, type: 3}
    - {fileID: 21300000, guid: 8ca64c48fe6234034ab24166e03604f2, type: 3}
    - {fileID: 21300000, guid: f8024945c44354748b5411795e445001, type: 3}
    - {fileID: 21300000, guid: 8c431c0be39d0490da6887c0a7e10b7e, type: 3}
    - {fileID: 21300000, guid: ea2d0249059f141afbf6951f586d3d2c, type: 3}
    - {fileID: 21300000, guid: 05b816f3d6a51409c91a48116b8c9b8c, type: 3}
    - {fileID: 21300000, guid: 2c2550c9689d149f59137067fe6bd3af, type: 3}
    - {fileID: 21300000, guid: d626e55fbdb504a34bfee37a4ff9ce70, type: 3}
    - {fileID: 21300000, guid: b33bc44c8d1e9486597fea717149e017, type: 3}
    - {fileID: 21300000, guid: 8c2971c36e3c849b0b9b5a5cb5c42fe7, type: 3}
    - {fileID: 21300000, guid: 8d9d15fa7acfb4c8ea329e294b12edad, type: 3}
    - {fileID: 21300000, guid: 73d495fb44e3e43b1a4731429667f048, type: 3}
    - {fileID: 21300000, guid: 5972c138bf1b84644ae0c5f32aafe4a1, type: 3}
    - {fileID: 21300000, guid: e6bddd65733c34f219d772b1811ba73f, type: 3}
    - {fileID: 21300000, guid: 109efee3a3abb482ba3fa74a11223114, type: 3}
    - {fileID: 21300000, guid: 8387f611cb65d449fa303a8b86ab18a1, type: 3}
    - {fileID: 21300000, guid: 150bc07abae994f2baa3cac50368f2f0, type: 3}
    - {fileID: 21300000, guid: 7473d82ad256d4f1ab8e31e76f47f001, type: 3}
    - {fileID: 21300000, guid: 95418f99d12f64508924e7084d7a16bc, type: 3}
    - {fileID: 21300000, guid: 6827f4f4b333049449fcc0a3a1eb5da6, type: 3}
    - {fileID: 21300000, guid: f24c2b0659e2144dca47f58f789176e2, type: 3}
    - {fileID: 21300000, guid: 7294a4704df48428e9ffafe9e1469b8b, type: 3}
    - {fileID: 21300000, guid: aecf455f44e874851aa080fa667a3d21, type: 3}
    - {fileID: 21300000, guid: 3446fb0b6d7a64236a78ee8d6ed29f19, type: 3}
    - {fileID: 21300000, guid: b8515da05de5547ce8be53272e9d42fe, type: 3}
    - {fileID: 21300000, guid: dbc95578bbe2d4c6ab904d6b3ee6494c, type: 3}
  m_AnimationClipSettings:
    serializedVersion: 2
    m_AdditiveReferencePoseClip: {fileID: 0}
    m_AdditiveReferencePoseTime: 0
    m_StartTime: 0
    m_StopTime: 1.6333333
    m_OrientationOffsetY: 0
    m_Level: 0
    m_CycleOffset: 0
    m_HasAdditiveReferencePose: 0
    m_LoopTime: 1
    m_LoopBlend: 0
    m_LoopBlendOrientation: 0
    m_LoopBlendPositionY: 0
    m_LoopBlendPositionXZ: 0
    m_KeepOriginalOrientation: 0
    m_KeepOriginalPositionY: 1
    m_KeepOriginalPositionXZ: 0
    m_HeightFromFeet: 0
    m_Mirror: 0
  m_EditorCurves: []
  m_EulerEditorCurves: []
  m_HasGenericRootTransform: 0
  m_HasMotionFloatCurves: 0
  m_GenerateMotionCurves: 0
  m_Events: []
