%YAML 1.1
%TAG !u! tag:unity3d.com,2011:
--- !u!74 &7400000
AnimationClip:
  m_ObjectHideFlags: 0
  m_PrefabParentObject: {fileID: 0}
  m_PrefabInternal: {fileID: 0}
  m_Name: off
  serializedVersion: 6
  m_Legacy: 0
  m_Compressed: 0
  m_UseHighQualityCurve: 1
  m_RotationCurves: []
  m_CompressedRotationCurves: []
  m_EulerCurves: []
  m_PositionCurves: []
  m_ScaleCurves: []
  m_FloatCurves: []
  m_PPtrCurves:
  - curve:
    - time: 0
      value: {fileID: 21300000, guid: 555471f27adac4e58af2a785359d0ba4, type: 3}
    - time: 0.033333335
      value: {fileID: 21300000, guid: 243004103469b4071a0c4286a54a55e7, type: 3}
    - time: 0.06666667
      value: {fileID: 21300000, guid: f094984e12cae4a18abebd5300aa2cf0, type: 3}
    - time: 0.1
      value: {fileID: 21300000, guid: b8443f34922564db1a76dcc36f667092, type: 3}
    - time: 0.13333334
      value: {fileID: 21300000, guid: 897d0ca75429048178f455b9a5fb0fa5, type: 3}
    - time: 0.16666667
      value: {fileID: 21300000, guid: 1dc0dffe2ade440f2853a0ef6b61dfc3, type: 3}
    - time: 0.2
      value: {fileID: 21300000, guid: 597c1b73fca8a44e8bdb0fe13cb3f3a0, type: 3}
    - time: 0.23333333
      value: {fileID: 21300000, guid: 0d72b8173d617485592916f3d434368d, type: 3}
    - time: 0.26666668
      value: {fileID: 21300000, guid: 4731ed6ba10e74c33910d78699cd910b, type: 3}
    - time: 0.3
      value: {fileID: 21300000, guid: b84b41fb542cb4d18abd7194439b6aaf, type: 3}
    - time: 0.33333334
      value: {fileID: 21300000, guid: 9536b920d1aff4798910615dbec2f5b6, type: 3}
    - time: 0.36666667
      value: {fileID: 21300000, guid: 3e5ee7c7ffa014b318fc0bc67cac5a43, type: 3}
    - time: 0.4
      value: {fileID: 21300000, guid: 6c8ca5f0dbd574d258cb4eb70080cd71, type: 3}
    - time: 0.43333334
      value: {fileID: 21300000, guid: 6335937e7721243a2a2cdc128b25298b, type: 3}
    - time: 0.46666667
      value: {fileID: 21300000, guid: e8cf9572f4c884d5d82ca66e14d787c1, type: 3}
    - time: 0.5
      value: {fileID: 21300000, guid: 6c1ac52bd009041579504b20456e65d1, type: 3}
    - time: 0.53333336
      value: {fileID: 21300000, guid: 1e52395cacdf54e61b8b8c62d4543981, type: 3}
    - time: 0.56666666
      value: {fileID: 21300000, guid: f74bae2417b274be7b128d6c50e75224, type: 3}
    - time: 0.6
      value: {fileID: 21300000, guid: 4468a3d9c36df4fa4aee07ad64ace151, type: 3}
    - time: 0.6333333
      value: {fileID: 21300000, guid: a804501623a15463fbdd0bbd28523f08, type: 3}
    - time: 0.6666667
      value: {fileID: 21300000, guid: bd590cbe1429b43bca3acad1db57af96, type: 3}
    - time: 0.7
      value: {fileID: 21300000, guid: 3188b00ccbc00490eb6874d76b499e02, type: 3}
    - time: 0.73333335
      value: {fileID: 21300000, guid: 0d23d77ef899547a7b8422eb4e1f114f, type: 3}
    - time: 0.76666665
      value: {fileID: 21300000, guid: db4da174e516542b5a487f3ea4084998, type: 3}
    - time: 0.8
      value: {fileID: 21300000, guid: 76ba4beca7f8140c6ad57895c151a885, type: 3}
    - time: 0.8333333
      value: {fileID: 21300000, guid: c56f5cc22539941da88c127909a6b2a2, type: 3}
    - time: 0.8666667
      value: {fileID: 21300000, guid: 40eb850b28b37434f8295c89135c878e, type: 3}
    - time: 0.9
      value: {fileID: 21300000, guid: c3d81ed1377c945e6af798156b7657ad, type: 3}
    - time: 0.93333334
      value: {fileID: 21300000, guid: 72777e709fe394a4fa48c1e61a55ffba, type: 3}
    - time: 0.96666664
      value: {fileID: 21300000, guid: 4f70dab6b82e74fcaad50e7cdce9c004, type: 3}
    - time: 1
      value: {fileID: 21300000, guid: 2f7a9bb83e6ae4e1ab9cc2482e872cef, type: 3}
    - time: 1.0333333
      value: {fileID: 21300000, guid: a49902c018e2a4368b1035e12ba37554, type: 3}
    - time: 1.0666667
      value: {fileID: 21300000, guid: efe9d46bfcff34e7b897b2a3e72d3a80, type: 3}
    - time: 1.1
      value: {fileID: 21300000, guid: 656c19fcf1c52412ab1814313f755f64, type: 3}
    - time: 1.1333333
      value: {fileID: 21300000, guid: 58cf055673b274822b72582fa442baec, type: 3}
    - time: 1.1666666
      value: {fileID: 21300000, guid: 2233168d39c1a4cfe9b29e2e630b7135, type: 3}
    - time: 1.2
      value: {fileID: 21300000, guid: e82992ddfb74b402b891fa75e94c5f30, type: 3}
    - time: 1.2333333
      value: {fileID: 21300000, guid: d162f246f4c3f4dde9a7e93e6a280e9a, type: 3}
    - time: 1.2666667
      value: {fileID: 21300000, guid: 066320ed17e184db48d79ceaea9e42ad, type: 3}
    - time: 1.3
      value: {fileID: 21300000, guid: b703c97dc3ebf401e8bfbc139303c718, type: 3}
    - time: 1.3333334
      value: {fileID: 21300000, guid: db44b75d669954a5b89746732dc3f17b, type: 3}
    - time: 1.3666667
      value: {fileID: 21300000, guid: 11bef1174859e49efa0742b26db9b3b3, type: 3}
    attribute: m_Sprite
    path: 
    classID: 212
    script: {fileID: 0}
  m_SampleRate: 30
  m_WrapMode: 0
  m_Bounds:
    m_Center: {x: 0, y: 0, z: 0}
    m_Extent: {x: 0, y: 0, z: 0}
  m_ClipBindingConstant:
    genericBindings:
    - serializedVersion: 2
      path: 0
      attribute: 0
      script: {fileID: 0}
      typeID: 212
      customType: 23
      isPPtrCurve: 1
    pptrCurveMapping:
    - {fileID: 21300000, guid: 555471f27adac4e58af2a785359d0ba4, type: 3}
    - {fileID: 21300000, guid: 243004103469b4071a0c4286a54a55e7, type: 3}
    - {fileID: 21300000, guid: f094984e12cae4a18abebd5300aa2cf0, type: 3}
    - {fileID: 21300000, guid: b8443f34922564db1a76dcc36f667092, type: 3}
    - {fileID: 21300000, guid: 897d0ca75429048178f455b9a5fb0fa5, type: 3}
    - {fileID: 21300000, guid: 1dc0dffe2ade440f2853a0ef6b61dfc3, type: 3}
    - {fileID: 21300000, guid: 597c1b73fca8a44e8bdb0fe13cb3f3a0, type: 3}
    - {fileID: 21300000, guid: 0d72b8173d617485592916f3d434368d, type: 3}
    - {fileID: 21300000, guid: 4731ed6ba10e74c33910d78699cd910b, type: 3}
    - {fileID: 21300000, guid: b84b41fb542cb4d18abd7194439b6aaf, type: 3}
    - {fileID: 21300000, guid: 9536b920d1aff4798910615dbec2f5b6, type: 3}
    - {fileID: 21300000, guid: 3e5ee7c7ffa014b318fc0bc67cac5a43, type: 3}
    - {fileID: 21300000, guid: 6c8ca5f0dbd574d258cb4eb70080cd71, type: 3}
    - {fileID: 21300000, guid: 6335937e7721243a2a2cdc128b25298b, type: 3}
    - {fileID: 21300000, guid: e8cf9572f4c884d5d82ca66e14d787c1, type: 3}
    - {fileID: 21300000, guid: 6c1ac52bd009041579504b20456e65d1, type: 3}
    - {fileID: 21300000, guid: 1e52395cacdf54e61b8b8c62d4543981, type: 3}
    - {fileID: 21300000, guid: f74bae2417b274be7b128d6c50e75224, type: 3}
    - {fileID: 21300000, guid: 4468a3d9c36df4fa4aee07ad64ace151, type: 3}
    - {fileID: 21300000, guid: a804501623a15463fbdd0bbd28523f08, type: 3}
    - {fileID: 21300000, guid: bd590cbe1429b43bca3acad1db57af96, type: 3}
    - {fileID: 21300000, guid: 3188b00ccbc00490eb6874d76b499e02, type: 3}
    - {fileID: 21300000, guid: 0d23d77ef899547a7b8422eb4e1f114f, type: 3}
    - {fileID: 21300000, guid: db4da174e516542b5a487f3ea4084998, type: 3}
    - {fileID: 21300000, guid: 76ba4beca7f8140c6ad57895c151a885, type: 3}
    - {fileID: 21300000, guid: c56f5cc22539941da88c127909a6b2a2, type: 3}
    - {fileID: 21300000, guid: 40eb850b28b37434f8295c89135c878e, type: 3}
    - {fileID: 21300000, guid: c3d81ed1377c945e6af798156b7657ad, type: 3}
    - {fileID: 21300000, guid: 72777e709fe394a4fa48c1e61a55ffba, type: 3}
    - {fileID: 21300000, guid: 4f70dab6b82e74fcaad50e7cdce9c004, type: 3}
    - {fileID: 21300000, guid: 2f7a9bb83e6ae4e1ab9cc2482e872cef, type: 3}
    - {fileID: 21300000, guid: a49902c018e2a4368b1035e12ba37554, type: 3}
    - {fileID: 21300000, guid: efe9d46bfcff34e7b897b2a3e72d3a80, type: 3}
    - {fileID: 21300000, guid: 656c19fcf1c52412ab1814313f755f64, type: 3}
    - {fileID: 21300000, guid: 58cf055673b274822b72582fa442baec, type: 3}
    - {fileID: 21300000, guid: 2233168d39c1a4cfe9b29e2e630b7135, type: 3}
    - {fileID: 21300000, guid: e82992ddfb74b402b891fa75e94c5f30, type: 3}
    - {fileID: 21300000, guid: d162f246f4c3f4dde9a7e93e6a280e9a, type: 3}
    - {fileID: 21300000, guid: 066320ed17e184db48d79ceaea9e42ad, type: 3}
    - {fileID: 21300000, guid: b703c97dc3ebf401e8bfbc139303c718, type: 3}
    - {fileID: 21300000, guid: db44b75d669954a5b89746732dc3f17b, type: 3}
    - {fileID: 21300000, guid: 11bef1174859e49efa0742b26db9b3b3, type: 3}
  m_AnimationClipSettings:
    serializedVersion: 2
    m_AdditiveReferencePoseClip: {fileID: 0}
    m_AdditiveReferencePoseTime: 0
    m_StartTime: 0
    m_StopTime: 1.4
    m_OrientationOffsetY: 0
    m_Level: 0
    m_CycleOffset: 0
    m_HasAdditiveReferencePose: 0
    m_LoopTime: 0
    m_LoopBlend: 0
    m_LoopBlendOrientation: 0
    m_LoopBlendPositionY: 0
    m_LoopBlendPositionXZ: 0
    m_KeepOriginalOrientation: 0
    m_KeepOriginalPositionY: 1
    m_KeepOriginalPositionXZ: 0
    m_HeightFromFeet: 0
    m_Mirror: 0
  m_EditorCurves: []
  m_EulerEditorCurves: []
  m_HasGenericRootTransform: 0
  m_HasMotionFloatCurves: 0
  m_GenerateMotionCurves: 0
  m_Events: []
